[
{
  "model": "access.group",
  "pk": 6,
  "fields": {
    "name": "accounting",
    "organization": null,
    "public_key": "7RSLZJXiawWxL4X1oDm8qFRlX008FQDDf3On0WT9hV8="
  }
},
{
  "model": "access.group",
  "pk": 7,
  "fields": {
    "name": "devs",
    "organization": null,
    "public_key": "QyoRhgnvQd1JFogQbZxZQMnzS4isD8LS8WB9KWkuMlg="
  }
},
{
  "model": "access.groupuser",
  "pk": 6,
  "fields": {
    "user": [
      "noadmin@aa.aa"
    ],
    "group": 6,
    "is_group_admin": true,
    "key_ciphertext": "tRjylyo7dPY/6wvnb0+BkZBKIGEYnzNIEnNXP38n4VaVdy7srK/dDgVzc0/gx1Ca5yVfWrRUTj/hQ1Y8oFl4Db/eyV2OC6pD0kXmFXEuPwAjc9ur8OG4+AkJafI=",
    "private_key_ciphertext": "rVH01ik4fmMe+I7eEJKZzOkA5vo3e1f1DpoI30Cc3/ny0xVsKOi4/gvL6/YP1MauBY9o18L0eTOQPggg9iIPdkWQAkKj7aiyGBiGxvYju7Ka/JFO"
  }
},
{
  "model": "access.groupuser",
  "pk": 7,
  "fields": {
    "user": [
      "aa@aa.aa"
    ],
    "group": 7,
    "is_group_admin": true,
    "key_ciphertext": "9fA0skHNFOuzAkl+pAtax4Q9e7hR7hPHiiZy5hcePCR9a/dy2PpfbRKpJaVPjrV3BLpxbsrJhx+9CJ2R8vnbtlIvK88dP/6hWv6DTCMy7Opp5OU/AserEvYEfaU=",
    "private_key_ciphertext": "FE2/UZIKZru8ictqqdfcm0LQP9S5+pm/KT3wcwYvR4kyhYvTjz0Th19mjuQvitwmKvCpqtDtTcwUVQaeaiJzHP4/RPxOQAbZh9luRJGa5yY1MtdV"
  }
}
]
